Samples	Zymo-GridION-EVEN-BB-SN.fq	Zymo-GridION-EVEN-BB-SN.fq	Zymo-GridION-EVEN-BB-SN.fq	Details	Details
Stats	count	unassigned	score	Rank	Name
Id					
1	2946523	1266	5096.815073902359	no_rank	root
2	2940086	2720	5105.953434695447	superkingdom	Bacteria
1224	592464	6	7967.953787909476	phylum	Proteobacteria
1236	592394	226	7968.8809474775235	class	Gammaproteobacteria
72274	180810	1	8320.188568110174	order	Pseudomonadales
468	8	0	32.75	family	Moraxellaceae
469	8	8	32.75	genus	Acinetobacter
135621	180801	0	8320.600499997237	family	Pseudomonadaceae
286	180801	1	8320.600499997237	genus	Pseudomonas
136841	180792	0	8321.006875304218	species_group	Pseudomonas aeruginosa group
287	180792	180786	8321.006875304218	species	Pseudomonas aeruginosa
1009714	6	6	3432.3333333333335	no_rank	Pseudomonas aeruginosa PAK
136845	8	0	160.0	species_group	Pseudomonas putida group
303	8	8	160.0	species	Pseudomonas putida
91347	411201	17	7817.804852128278	order	Enterobacterales
543	409426	2922	7846.081145310752	family	Enterobacteriaceae
547	15	0	5013.6	genus	Enterobacter
354276	15	2	5013.6	species_group	Enterobacter cloacae complex
158836	13	13	5678.0	species	Enterobacter hormaechei
561	200299	3	7902.380051822525	genus	Escherichia
562	200278	182924	7902.977231648009	species	Escherichia coli
83333	201	101	7641.28855721393	no_rank	Escherichia coli K-12
511145	21	21	602.8571428571429	no_rank	Escherichia coli str. K-12 substr. MG1655
679895	6	6	7007.333333333333	no_rank	Escherichia coli BW25113
1245474	73	73	8958.027397260274	no_rank	Escherichia coli ER2796
83334	87	87	4579.885057471264	no_rank	Escherichia coli O157:H7
168927	297	0	7423.73063973064	no_rank	Escherichia coli O111:H-
585396	297	297	7423.73063973064	no_rank	Escherichia coli O111:H- str. 11128
331112	6	6	4649.333333333333	no_rank	Escherichia coli HS
376725	21	21	4318.333333333333	no_rank	Escherichia coli O103:H2
498388	13692	12503	8716.080996202163	no_rank	Escherichia coli C
481805	1189	1189	7943.609756097561	no_rank	Escherichia coli ATCC 8739
696406	15	15	6638.066666666667	no_rank	Escherichia coli UMNK88
741093	9	9	4673.111111111111	no_rank	Escherichia coli Xuzhou21
866789	42	42	7110.761904761905	no_rank	Escherichia coli DSM 30083 = JCM 1649 = ATCC 11775
910348	1276	1276	6817.400470219436	no_rank	Escherichia coli P12b
941323	537	537	7428.266294227188	no_rank	Escherichia coli VR50
1038927	425	425	5417.4494117647055	no_rank	Escherichia coli O104:H4
1435461	164	164	8898.640243902439	no_rank	Escherichia coli KLY
1446746	6	6	2066.6666666666665	no_rank	Escherichia coli O6:H16
2048781	25	25	4388.4	no_rank	Escherichia coli O27:H7
2605619	524	524	8563.856870229007	no_rank	Escherichia coli O16:H48
2605620	27	27	6438.407407407408	no_rank	Escherichia coli O80:H26
208962	18	18	2541.4444444444443	species	Escherichia albertii
570	28	1	2078.9999999999995	genus	Klebsiella
571	6	6	2342.6666666666665	species	Klebsiella oxytoca
573	21	4	2097.6190476190477	species	Klebsiella pneumoniae
72407	17	17	2558.0	subspecies	Klebsiella pneumoniae subsp. pneumoniae
590	204773	10	7850.495187353801	genus	Salmonella
28901	204752	2752	7851.016322184887	species	Salmonella enterica
59201	202000	1824	7924.971638613862	subspecies	Salmonella enterica subsp. enterica
595	13	13	672.9230769230769	no_rank	Salmonella enterica subsp. enterica serovar Infantis
600	12	12	497.5	no_rank	Salmonella enterica subsp. enterica serovar Thompson
611	191	191	1167.8115183246073	no_rank	Salmonella enterica subsp. enterica serovar Heidelberg
28150	6	6	780.8333333333334	no_rank	Salmonella enterica subsp. enterica serovar Senftenberg
57045	132	0	1059.5454545454545	no_rank	Salmonella enterica subsp. enterica serovar Paratyphi B
224729	132	132	1059.5454545454545	no_rank	Salmonella enterica subsp. enterica serovar Java
57046	180	0	1001.9777777777778	no_rank	Salmonella enterica subsp. enterica serovar Paratyphi C
476213	180	180	1001.9777777777778	no_rank	Salmonella enterica subsp. enterica serovar Paratyphi C str. RKS4594
58096	21	21	1697.857142857143	no_rank	Salmonella enterica subsp. enterica serovar Bareilly
58712	7	7	2938.4285714285716	no_rank	Salmonella enterica subsp. enterica serovar Anatum
90105	19	19	1622.1052631578948	no_rank	Salmonella enterica subsp. enterica serovar Saintpaul
90370	57	57	2710.9122807017543	no_rank	Salmonella enterica subsp. enterica serovar Typhi
90371	498	439	2136.9036144578313	no_rank	Salmonella enterica subsp. enterica serovar Typhimurium
718274	10	10	1155.8	no_rank	Salmonella enterica subsp. enterica serovar Typhimurium str. T000240
996633	27	27	4893.2962962962965	no_rank	Salmonella enterica subsp. enterica serovar Typhimurium str. L-3553
1454638	22	22	911.8181818181819	no_rank	Salmonella enterica subsp. enterica serovar Typhimurium str. USDA-ARS-USMARC-1898
98360	390	338	909.148717948718	no_rank	Salmonella enterica subsp. enterica serovar Dublin
439851	26	26	599.7307692307693	no_rank	Salmonella enterica subsp. enterica serovar Dublin str. CT_02021853
687860	26	26	1995.2307692307693	no_rank	Salmonella enterica subsp. enterica serovar Dublin str. ATCC 39184
108619	61	17	1438.1639344262296	no_rank	Salmonella enterica subsp. enterica serovar Newport
930778	9	9	1156.0	no_rank	Salmonella enterica subsp. enterica serovar Newport str. Levine 1
1454618	27	27	1110.5185185185185	no_rank	Salmonella enterica subsp. enterica serovar Newport str. USDA-ARS-USMARC-1925
1454625	8	8	809.0	no_rank	Salmonella enterica subsp. enterica serovar Newport str. CDC 2009K-1331
119912	197552	145814	8068.616440228396	no_rank	Salmonella enterica subsp. enterica serovar Choleraesuis
321314	818	818	1585.8606356968214	no_rank	Salmonella enterica subsp. enterica serovar Choleraesuis str. SC-B67
938142	50920	50920	14232.719952867243	no_rank	Salmonella enterica subsp. enterica serovar Choleraesuis str. ATCC 10708
149391	23	23	1105.391304347826	no_rank	Salmonella enterica subsp. enterica serovar Braenderup
149539	549	549	2989.313296903461	no_rank	Salmonella enterica subsp. enterica serovar Enteritidis
260678	137	137	837.1605839416059	no_rank	Salmonella enterica subsp. enterica serovar Goldcoast
340188	25	14	557.28	no_rank	Salmonella enterica subsp. enterica serovar Cerro
1410916	11	11	496.90909090909093	no_rank	Salmonella enterica subsp. enterica serovar Cerro str. CFSAN001588
486994	19	5	959.7894736842105	no_rank	Salmonella enterica subsp. enterica serovar Hvittingfoss
1242097	14	14	689.0	no_rank	Salmonella enterica subsp. enterica serovar Hvittingfoss str. SA20014981
593905	9	9	1131.3333333333333	no_rank	Salmonella enterica subsp. enterica serovar Corvallis
913074	9	0	836.6666666666666	no_rank	Salmonella enterica subsp. enterica serovar Inverness
941187	9	9	836.6666666666666	no_rank	Salmonella enterica subsp. enterica serovar Inverness str. ATCC 10720
1129117	43	43	937.5581395348837	no_rank	Salmonella enterica subsp. enterica serovar Nitra
1160765	7	7	733.8571428571429	no_rank	Salmonella enterica subsp. enterica serovar Sanjuan
1243590	6	0	1327.6666666666667	no_rank	Salmonella enterica subsp. enterica serovar Quebec
1243591	6	6	1327.6666666666667	no_rank	Salmonella enterica subsp. enterica serovar Quebec str. S-1267
1962641	196	196	1339.8673469387754	no_rank	Salmonella enterica subsp. enterica serovar Birkenhead
2583588	14	14	1088.5	no_rank	Salmonella enterica subsp. enterica serovar 1,4,[5],12:i:-
2614656	11	1	4816.545454545455	no_rank	unclassified Salmonella
2664291	10	10	3947.3	species	Salmonella sp. HNK130
620	1378	1	5556.431785195936	genus	Shigella
621	23	23	2657.8260869565215	species	Shigella boydii
622	99	99	9142.191919191919	species	Shigella dysenteriae
623	24	24	4513.5	species	Shigella flexneri
624	1231	1231	5340.537774167344	species	Shigella sonnei
160674	11	1	204.36363636363637	genus	Raoultella
1259973	10	10	187.8	species	Raoultella electrica
1903409	96	1	126.5625	family	Erwiniaceae
32199	95	0	126.82105263157895	genus	Buchnera
9	95	0	126.82105263157895	species	Buchnera aphidicola
118110	95	95	126.82105263157895	no_rank	Buchnera aphidicola (Schlechtendalia chinensis)
1903411	28	3	1826.428571428571	family	Yersiniaceae
613	25	3	2039.9199999999996	genus	Serratia
615	22	22	2302.5454545454545	species	Serratia marcescens
1903414	1634	0	1364.124847001224	family	Morganellaceae
583	1634	1634	1364.124847001224	genus	Proteus
135614	108	0	129.70370370370372	order	Xanthomonadales
32033	108	6	129.70370370370372	family	Xanthomonadaceae
68	45	1	129.6	genus	Lysobacter
84531	8	8	126.5	species	Lysobacter antibioticus
453783	36	36	130.88888888888889	species	Lysobacter soli
338	57	3	127.0	genus	Xanthomonas
339	17	0	127.52941176470588	species	Xanthomonas campestris
340	11	11	137.8181818181818	no_rank	Xanthomonas campestris pv. campestris
359385	6	0	108.66666666666667	no_rank	Xanthomonas campestris pv. raphani
990315	6	6	108.66666666666667	no_rank	Xanthomonas campestris pv. raphani 756C
347	37	5	124.62162162162163	species	Xanthomonas oryzae
64187	32	32	126.40625	no_rank	Xanthomonas oryzae pv. oryzae
135622	8	8	71.5	order	Alteromonadales
135623	13	0	109.6923076923077	order	Vibrionales
641	13	5	109.6923076923077	family	Vibrionaceae
662	8	0	125.75	genus	Vibrio
717610	8	1	125.75	species_group	Vibrio harveyi group
680	7	7	129.14285714285714	species	Vibrio campbellii
135625	6	0	264.6666666666667	order	Pasteurellales
712	6	6	264.6666666666667	family	Pasteurellaceae
1706369	22	1	145.18181818181822	order	Cellvibrionales
1706373	21	0	144.57142857142858	family	Microbulbiferaceae
48073	21	1	144.57142857142858	genus	Microbulbifer
2619833	20	0	145.4	no_rank	unclassified Microbulbifer
1516059	20	20	145.4	species	Microbulbifer sp. ALW1
28211	16	16	96.25	class	Alphaproteobacteria
28216	37	2	141.78378378378378	class	Betaproteobacteria
80840	23	6	189.1304347826087	order	Burkholderiales
75682	6	6	249.33333333333334	family	Oxalobacteraceae
80864	11	2	198.36363636363637	family	Comamonadaceae
283	9	0	214.22222222222223	genus	Comamonas
285	9	0	214.22222222222223	species	Comamonas testosteroni
1191062	9	9	214.22222222222223	no_rank	Comamonas testosteroni P19
119066	12	4	71.33333333333333	no_rank	unclassified Betaproteobacteria
1301080	8	0	58.0	genus	Candidatus Nasuia
1160784	8	8	58.0	species	Candidatus Nasuia deltocephalinicola
68525	11	5	77.9090909090909	subphylum	delta/epsilon subdivisions
29547	6	0	56.0	class	Epsilonproteobacteria
213849	6	6	56.0	order	Campylobacterales
1783257	8	0	138.75	no_rank	PVC group
203682	8	1	138.75	phylum	Planctomycetes
473814	7	7	131.71428571428572	no_rank	unclassified Planctomycetes
1783270	160	0	131.73125	no_rank	FCB group
68336	160	1	131.73125	no_rank	Bacteroidetes/Chlorobi group
976	159	20	131.8930817610063	phylum	Bacteroidetes
117743	130	0	135.8923076923077	class	Flavobacteriia
200644	130	0	135.8923076923077	order	Flavobacteriales
49546	108	28	154.27777777777777	family	Flavobacteriaceae
34084	72	0	181.86111111111114	genus	Riemerella
34085	72	72	181.86111111111114	species	Riemerella anatipestifer
59732	8	8	99.25	genus	Chryseobacterium
313602	22	0	45.63636363636363	no_rank	unclassified Flavobacteriales
336809	22	0	45.63636363636363	genus	Candidatus Sulcia
336810	22	22	45.63636363636363	species	Candidatus Sulcia muelleri
768503	9	0	108.77777777777777	class	Cytophagia
768507	9	9	108.77777777777777	order	Cytophagales
1783272	2344734	3	4380.755733912673	no_rank	Terrabacteria group
1239	2344687	3	4380.839454477292	phylum	Firmicutes
91061	2342867	1297	4383.307383218936	class	Bacilli
1385	1448072	1151	4753.108922760746	order	Bacillales
90964	381913	0	4824.615284109207	family	Staphylococcaceae
1279	381913	43	4824.615284109207	genus	Staphylococcus
1280	381870	379958	4825.103747348573	species	Staphylococcus aureus
46170	1865	1527	2089.6461126005356	subspecies	Staphylococcus aureus subsp. aureus
93061	263	263	2523.528517110266	no_rank	Staphylococcus aureus subsp. aureus NCTC 8325
523796	32	32	1292.0	no_rank	Staphylococcus aureus subsp. aureus ST398
1196216	43	0	1487.5116279069769	no_rank	Staphylococcus aureus subsp. aureus ST72
1193576	43	43	1487.5116279069769	no_rank	Staphylococcus aureus subsp. aureus CN1
703339	47	47	3475.7872340425533	no_rank	Staphylococcus aureus 04-02981
186817	618691	133	4625.54849997818	family	Bacillaceae
1386	618558	55	4626.362730738266	genus	Bacillus
86661	234	21	624.6623931623932	species_group	Bacillus cereus group
1396	21	15	573.6666666666666	species	Bacillus cereus
1003239	6	6	169.33333333333334	no_rank	Bacillus cereus C1L
1405	182	182	652.2197802197802	species	Bacillus mycoides
1428	10	10	249.4	species	Bacillus thuringiensis
653685	617454	43	4628.173922267893	species_group	Bacillus subtilis group
1423	617398	707	4628.492954301764	species	Bacillus subtilis
96241	616619	0	4631.6695155355255	subspecies	Bacillus subtilis subsp. spizizenii
655816	132	132	3704.75	no_rank	Bacillus subtilis subsp. spizizenii str. W23
703612	616475	616475	4631.941939251389	no_rank	Bacillus subtilis subsp. spizizenii ATCC 6633
1052585	12	12	832.5833333333334	no_rank	Bacillus subtilis subsp. spizizenii TU-B-10
135461	11	11	970.9090909090909	subspecies	Bacillus subtilis subsp. subtilis
483913	42	42	1551.4285714285713	subspecies	Bacillus subtilis subsp. inaquosorum
1204342	7	7	708.1428571428571	no_rank	Bacillus subtilis BEST7003
1415167	12	12	557.0	no_rank	Bacillus subtilis PY79
653388	6	0	653.3333333333334	species_subgroup	Bacillus mojavensis subgroup
260554	6	6	653.3333333333334	species	Bacillus halotolerans
1938374	7	7	792.8571428571429	species_subgroup	Bacillus amyloliquefaciens group
1963032	815	815	4254.2932515337425	species	Bacillus intestinalis
186820	446317	0	4861.96116661476	family	Listeriaceae
1637	446317	3	4861.96116661476	genus	Listeria
1639	446314	442203	4861.992731574632	species	Listeria monocytogenes
879088	3978	3978	2181.5221216691807	no_rank	Listeria monocytogenes SLCC2378
2065118	133	87	1578.9323308270677	no_rank	Listeria monocytogenes serotype 4b
1196161	40	40	1553.275	no_rank	Listeria monocytogenes serotype 4b str. 81-0861
1230340	6	6	1970.3333333333333	no_rank	Listeria monocytogenes serotype 4b str. LL195
186826	893498	37	3779.898723891939	order	Lactobacillales
1300	6	0	103.66666666666667	family	Streptococcaceae
1301	6	6	103.66666666666667	genus	Streptococcus
33958	493634	0	2907.650846578639	family	Lactobacillaceae
1578	493634	247	2907.650846578639	genus	Lactobacillus
1584	8	8	279.5	species	Lactobacillus delbrueckii
1598	6	6	368.3333333333333	species	Lactobacillus reuteri
1600	139	139	1312.769784172662	species	Lactobacillus acetotolerans
1613	491930	51695	2911.9007501067226	species	Lactobacillus fermentum
334390	15	15	505.8	no_rank	Lactobacillus fermentum IFO 3956
712938	9372	9372	3731.696222791293	no_rank	Lactobacillus fermentum CECT 5716
767453	85	85	3812.258823529412	no_rank	Lactobacillus fermentum F-6
1381124	430763	430763	2856.847414935823	no_rank	Lactobacillus fermentum 3872
33959	298	298	1269.6476510067114	species	Lactobacillus johnsonii
655183	431	0	1543.4570765661254	species_group	Lactobacillus casei group
1597	431	431	1543.4570765661254	species	Lactobacillus paracasei
2620435	575	0	2053.5565217391304	no_rank	unclassified Lactobacillus
2692757	575	575	2053.5565217391304	species	Lactobacillus sp. C25
81850	29	1	673.3103448275862	family	Leuconostocaceae
46255	28	1	685.8571428571429	genus	Weissella
137591	27	27	701.7037037037037	species	Weissella cibaria
81852	399792	0	4857.342095389601	family	Enterococcaceae
1350	399792	5	4857.342095389601	genus	Enterococcus
1351	399780	399728	4857.474548501676	species	Enterococcus faecalis
1201292	12	12	3093.6666666666665	no_rank	Enterococcus faecalis ATCC 29212
1206105	32	32	5068.40625	no_rank	Enterococcus faecalis D32
1261557	8	8	6391.625	no_rank	Enterococcus faecalis str. Symbioflor 1
1352	7	7	500.57142857142856	species	Enterococcus faecium
186801	1817	1	1205.421574023115	class	Clostridia
186802	1816	7	1206.0853524229076	order	Clostridiales
31979	1809	0	1210.3698175787729	family	Clostridiaceae
1485	1809	5	1210.3698175787729	genus	Clostridium
1491	1775	1775	1225.9543661971832	species	Clostridium botulinum
1497	6	6	143.66666666666666	species	Clostridium formicaceticum
1513	23	23	536.1739130434783	species	Clostridium tetani
201174	23	0	289.60869565217394	phylum	Actinobacteria
1760	23	9	289.60869565217394	class	Actinobacteria
85011	14	0	160.21428571428572	order	Streptomycetales
2062	14	0	160.21428571428572	family	Streptomycetaceae
1883	14	8	160.21428571428572	genus	Streptomyces
1914	6	0	121.0	species	Streptomyces lavendulae
58340	6	6	121.0	subspecies	Streptomyces lavendulae subsp. lavendulae
544448	8	0	110.5	phylum	Tenericutes
31969	8	0	110.5	class	Mollicutes
2085	8	0	110.5	order	Mycoplasmatales
2092	8	0	110.5	family	Mycoplasmataceae
2093	8	8	110.5	genus	Mycoplasma
1798711	13	0	76.46153846153847	no_rank	Cyanobacteria/Melainabacteria group
1117	13	3	76.46153846153847	phylum	Cyanobacteria
1890424	10	3	101.6	order	Synechococcales
1890426	7	1	111.42857142857143	family	Synechococcaceae
1129	6	0	113.0	genus	Synechococcus
2626047	6	0	113.0	no_rank	unclassified Synechococcus
374982	6	6	113.0	species	Synechococcus sp. PCC 73109
2157	3941	3	1152.4387211367673	superkingdom	Archaea
28890	3909	0	1160.1117932975185	phylum	Euryarchaeota
2283794	35	1	133.02857142857144	no_rank	Methanomada group
183925	24	0	144.33333333333334	class	Methanobacteria
2158	24	0	144.33333333333334	order	Methanobacteriales
2159	24	2	144.33333333333334	family	Methanobacteriaceae
2172	22	5	138.27272727272728	genus	Methanobrevibacter
39441	11	0	104.72727272727273	species	Methanobrevibacter arboriphilus
1300164	11	11	104.72727272727273	no_rank	Methanobrevibacter arboriphilus JCM 13429 = DSM 1125
294671	6	6	221.0	species	Methanobrevibacter olleyae
183939	10	0	105.2	class	Methanococci
2182	10	0	105.2	order	Methanococcales
2183	10	0	105.2	family	Methanococcaceae
2184	10	4	105.2	genus	Methanococcus
2188	6	0	95.66666666666667	species	Methanococcus voltae
456320	6	6	95.66666666666667	no_rank	Methanococcus voltae A3
2290931	3874	0	1169.3910686628808	no_rank	Stenosarchaea group
183963	3856	10	1174.2741182572613	class	Halobacteria
1644055	3839	0	1177.4308413649387	order	Haloferacales
1963271	3839	0	1177.4308413649387	family	Halorubraceae
56688	3839	0	1177.4308413649387	genus	Halorubrum
2642239	3839	219	1177.4308413649387	no_rank	unclassified Halorubrum
1537265	389	389	636.0976863753214	species	Halorubrum sp. SP3
1537267	183	183	185.34426229508196	species	Halorubrum sp. SP9
2518119	3048	3048	1348.3779527559054	species	Halorubrum sp. SS7
1644060	7	0	152.85714285714286	order	Natrialbales
1644061	7	7	152.85714285714286	family	Natrialbaceae
224756	18	0	123.33333333333333	class	Methanomicrobia
94695	18	0	123.33333333333333	order	Methanosarcinales
2206	18	0	123.33333333333333	family	Methanosarcinaceae
2207	18	5	123.33333333333333	genus	Methanosarcina
2209	13	13	116.61538461538461	species	Methanosarcina mazei
1783275	29	0	127.3103448275862	no_rank	TACK group
651137	29	1	127.3103448275862	phylum	Thaumarchaeota
1643678	28	0	131.85714285714286	class	Nitrososphaeria
1033996	28	0	131.85714285714286	order	Nitrososphaerales
1033997	28	0	131.85714285714286	family	Nitrososphaeraceae
1826864	28	1	131.85714285714286	genus	Candidatus Nitrosocosmicus
1798806	27	27	131.85185185185185	species	Candidatus Nitrosocosmicus franklandus
10239	71	3	116.50704225352112	superkingdom	Viruses
10442	7	0	97.42857142857143	family	Baculoviridae
558016	7	0	97.42857142857143	genus	Alphabaculovirus
745176	7	0	97.42857142857143	no_rank	unclassified Alphabaculovirus
38012	7	7	97.42857142857143	species	Malacosoma neustria nucleopolyhedrovirus
10501	8	2	112.75	family	Phycodnaviridae
181083	6	0	120.33333333333333	genus	Chlorovirus
381899	6	0	120.33333333333333	species	Paramecium bursaria Chlorella virus A1
42683	6	6	120.33333333333333	no_rank	Paramecium bursaria Chlorella virus CVA-1
28883	6	6	429.0	order	Caudovirales
548681	47	0	85.48936170212765	order	Herpesvirales
10292	47	0	85.48936170212765	family	Herpesviridae
10357	47	0	85.48936170212765	subfamily	Betaherpesvirinae
548689	47	0	85.48936170212765	genus	Proboscivirus
548912	47	0	85.48936170212765	no_rank	unclassified Proboscivirus
548914	47	47	85.48936170212765	species	Elephant endotheliotropic herpesvirus 4
28384	1159	0	560.2786885245902	no_rank	other sequences
81077	1159	0	560.2786885245902	no_rank	artificial sequences
32630	1159	1159	560.2786885245902	species	synthetic construct
