Samples	Zymo-GridION-LOG-BB-SN-flipflop.fq	Zymo-GridION-LOG-BB-SN-flipflop.fq	Zymo-GridION-LOG-BB-SN-flipflop.fq	Details	Details
Stats	count	unassigned	score	Rank	Name
Id					
1	3322520	269	5847.744238409402	no_rank	root
2	3320681	1505	5850.414395721844	superkingdom	Bacteria
1224	176944	2	9299.60087937427	phylum	Proteobacteria
1236	176921	7	9300.780342638809	class	Gammaproteobacteria
72274	173307	2	9310.818720536394	order	Pseudomonadales
468	31	1	251.93548387096777	family	Moraxellaceae
469	30	11	255.5666666666667	genus	Acinetobacter
196816	19	1	301.7894736842105	no_rank	unclassified Acinetobacter
2662362	18	18	314.1111111111111	species	Acinetobacter sp. dk386
135621	173274	0	9312.543774599771	family	Pseudomonadaceae
286	173274	18	9312.543774599771	genus	Pseudomonas
136841	173256	1	9313.407200905021	species_group	Pseudomonas aeruginosa group
287	173255	173207	9313.460252229375	species	Pseudomonas aeruginosa
208964	10	10	1163.0	no_rank	Pseudomonas aeruginosa PAO1
1009714	38	38	1392.2894736842106	no_rank	Pseudomonas aeruginosa PAK
91347	3536	11	9010.08314479638	order	Enterobacterales
543	3485	15	9140.114777618364	family	Enterobacteriaceae
561	1771	0	9042.858836815356	genus	Escherichia
562	1771	1708	9042.858836815356	species	Escherichia coli
83333	40	15	8471.1	no_rank	Escherichia coli K-12
316407	15	15	6128.733333333334	no_rank	Escherichia coli str. K-12 substr. W3110
511145	10	10	7653.5	no_rank	Escherichia coli str. K-12 substr. MG1655
941323	8	8	10705.125	no_rank	Escherichia coli VR50
2605619	15	15	7317.8	no_rank	Escherichia coli O16:H48
590	1699	1	9261.404944084754	genus	Salmonella
28901	1698	20	9262.953474676087	species	Salmonella enterica
59201	1678	31	9337.222884386172	subspecies	Salmonella enterica subsp. enterica
119912	1647	28	9488.333940497874	no_rank	Salmonella enterica subsp. enterica serovar Choleraesuis
938142	1619	1619	9445.445336627548	no_rank	Salmonella enterica subsp. enterica serovar Choleraesuis str. ATCC 10708
1903409	18	1	128.0	family	Erwiniaceae
32199	17	0	130.11764705882354	genus	Buchnera
9	17	2	130.11764705882354	species	Buchnera aphidicola
118110	15	15	129.73333333333332	no_rank	Buchnera aphidicola (Schlechtendalia chinensis)
1903414	22	0	134.1818181818182	family	Morganellaceae
583	22	0	134.1818181818182	genus	Proteus
183417	22	22	134.1818181818182	species	Proteus hauseri
135614	51	0	200.80392156862746	order	Xanthomonadales
32033	51	1	200.80392156862746	family	Xanthomonadaceae
338	15	0	107.86666666666666	genus	Xanthomonas
339	8	0	109.0	species	Xanthomonas campestris
359385	8	0	109.0	no_rank	Xanthomonas campestris pv. raphani
990315	8	8	109.0	no_rank	Xanthomonas campestris pv. raphani 756C
347	7	0	106.57142857142857	species	Xanthomonas oryzae
64187	7	7	106.57142857142857	no_rank	Xanthomonas oryzae pv. oryzae
2370	35	0	243.68571428571428	genus	Xylella
1444770	35	35	243.68571428571428	species	Xylella taiwanensis
135623	7	0	154.0	order	Vibrionales
641	7	7	154.0	family	Vibrionaceae
1706369	13	0	134.0	order	Cellvibrionales
1706373	13	0	134.0	family	Microbulbiferaceae
48073	13	0	134.0	genus	Microbulbifer
2619833	13	0	134.0	no_rank	unclassified Microbulbifer
1516059	13	13	134.0	species	Microbulbifer sp. ALW1
28211	7	7	161.71428571428572	class	Alphaproteobacteria
28216	14	4	278.07142857142856	class	Betaproteobacteria
80840	10	2	337.5	order	Burkholderiales
80864	8	1	387.875	family	Comamonadaceae
283	7	0	344.7142857142857	genus	Comamonas
285	7	0	344.7142857142857	species	Comamonas testosteroni
1191062	7	7	344.7142857142857	no_rank	Comamonas testosteroni P19
1783270	58	0	126.51724137931032	no_rank	FCB group
68336	58	0	126.51724137931032	no_rank	Bacteroidetes/Chlorobi group
976	58	11	126.51724137931032	phylum	Bacteroidetes
117743	47	0	134.80851063829786	class	Flavobacteriia
200644	47	9	134.80851063829786	order	Flavobacteriales
49546	38	10	152.57894736842104	family	Flavobacteriaceae
34084	28	0	153.21428571428572	genus	Riemerella
34085	28	28	153.21428571428572	species	Riemerella anatipestifer
1783272	3142174	0	5655.752232371602	no_rank	Terrabacteria group
1239	3142142	2	5655.803313790404	phylum	Firmicutes
91061	3141442	0	5656.787669802597	class	Bacilli
1385	3141229	117	5656.903422513929	order	Bacillales
186817	38195	2	5642.334808220971	family	Bacillaceae
1386	38193	16	5642.607336422905	genus	Bacillus
86661	78	5	608.9487179487179	species_group	Bacillus cereus group
1405	73	73	645.3150684931506	species	Bacillus mycoides
653685	38089	6	5653.858016750243	species_group	Bacillus subtilis group
1423	38083	86	5654.553527820813	species	Bacillus subtilis
96241	37997	2	5662.003473958471	subspecies	Bacillus subtilis subsp. spizizenii
703612	37995	37995	5662.232609553888	no_rank	Bacillus subtilis subsp. spizizenii ATCC 6633
1963032	10	10	7925.9	species	Bacillus intestinalis
186820	3102917	0	5657.008077238292	family	Listeriaceae
1637	3102917	16	5657.008077238292	genus	Listeria
1638	16	6	774.625	species	Listeria ivanovii
202752	10	10	643.4	subspecies	Listeria ivanovii subsp. londoniensis
1639	3102848	2975280	5657.123445943858	species	Listeria monocytogenes
879088	401	401	2012.3541147132169	no_rank	Listeria monocytogenes SLCC2378
879089	7	7	451.42857142857144	no_rank	Listeria monocytogenes SLCC2540
882095	21	21	1901.952380952381	no_rank	Listeria monocytogenes ATCC 19117
930781	46	46	2098.1521739130435	no_rank	Listeria monocytogenes J1816
1126011	9	9	140.44444444444446	no_rank	Listeria monocytogenes 07PF0776
1299895	107	107	2486.5981308411215	no_rank	Listeria monocytogenes CFSAN002349
1457188	3073	3073	2434.913114220631	no_rank	Listeria monocytogenes WSLC1042
2065118	123904	33561	4358.192503873968	no_rank	Listeria monocytogenes serotype 4b
265669	312	312	1824.304487179487	no_rank	Listeria monocytogenes serotype 4b str. F2365
1196159	406	406	1822.3891625615763	no_rank	Listeria monocytogenes serotype 4b str. 81-0558
1196160	396	396	2110.7752525252527	no_rank	Listeria monocytogenes serotype 4b str. 81-0592
1196161	39271	39271	4449.635787222123	no_rank	Listeria monocytogenes serotype 4b str. 81-0861
1196162	493	493	2059.837728194726	no_rank	Listeria monocytogenes serotype 4b str. 10-0809
1196171	499	499	2067.7114228456912	no_rank	Listeria monocytogenes serotype 4b str. 02-1103
1196172	441	441	1883.607709750567	no_rank	Listeria monocytogenes serotype 4b str. 02-1289
1196173	38691	38691	4315.297226745238	no_rank	Listeria monocytogenes serotype 4b str. 02-1792
1196174	34	34	3065.5	no_rank	Listeria monocytogenes serotype 4b str. 02-6679
1196175	29	29	2768.344827586207	no_rank	Listeria monocytogenes serotype 4b str. 02-6680
1230340	9771	9771	3032.391055163238	no_rank	Listeria monocytogenes serotype 4b str. LL195
1642	26	19	170.46153846153845	species	Listeria innocua
272626	7	7	194.28571428571428	no_rank	Listeria innocua Clip11262
1643	11	11	128.72727272727272	species	Listeria welshimeri
186826	213	6	3949.718309859155	order	Lactobacillales
33958	181	0	3362.4364640883978	family	Lactobacillaceae
1578	181	10	3362.4364640883978	genus	Lactobacillus
1613	171	171	3501.8304093567253	species	Lactobacillus fermentum
81852	26	0	8868.26923076923	family	Enterococcaceae
1350	26	2	8868.26923076923	genus	Enterococcus
1351	24	24	9602.125	species	Enterococcus faecalis
186801	698	1	1241.416905444126	class	Clostridia
186802	697	0	1242.9827833572454	order	Clostridiales
31979	697	0	1242.9827833572454	family	Clostridiaceae
1485	697	5	1242.9827833572454	genus	Clostridium
1491	692	692	1250.9812138728323	species	Clostridium botulinum
201174	19	1	1009.5263157894736	phylum	Actinobacteria
1760	18	18	1021.6111111111111	class	Actinobacteria
544448	13	0	99.84615384615384	phylum	Tenericutes
31969	13	0	99.84615384615384	class	Mollicutes
2085	13	0	99.84615384615384	order	Mycoplasmatales
2092	13	0	99.84615384615384	family	Mycoplasmataceae
2093	13	5	99.84615384615384	genus	Mycoplasma
656088	8	0	123.5	species_group	Mycoplasma mycoides group
2102	8	0	123.5	species	Mycoplasma mycoides
2103	8	8	123.5	subspecies	Mycoplasma mycoides subsp. mycoides
2157	1067	0	1346.7169634489221	superkingdom	Archaea
28890	1056	0	1359.0426136363637	phylum	Euryarchaeota
2283794	22	0	136.36363636363637	no_rank	Methanomada group
183925	12	0	166.16666666666666	class	Methanobacteria
2158	12	0	166.16666666666666	order	Methanobacteriales
2159	12	2	166.16666666666666	family	Methanobacteriaceae
2172	10	10	162.0	genus	Methanobrevibacter
183939	10	0	100.6	class	Methanococci
2182	10	0	100.6	order	Methanococcales
2183	10	0	100.6	family	Methanococcaceae
2184	10	2	100.6	genus	Methanococcus
2188	8	0	97.75	species	Methanococcus voltae
456320	8	8	97.75	no_rank	Methanococcus voltae A3
2290931	1034	0	1385.0570599613152	no_rank	Stenosarchaea group
183963	1020	1	1402.1343137254903	class	Halobacteria
1644055	1019	0	1403.4298331697744	order	Haloferacales
1963271	1019	0	1403.4298331697744	family	Halorubraceae
56688	1019	0	1403.4298331697744	genus	Halorubrum
2642239	1019	27	1403.4298331697744	no_rank	unclassified Halorubrum
1537265	111	111	749.8018018018018	species	Halorubrum sp. SP3
1537267	90	90	162.95555555555555	species	Halorubrum sp. SP9
2518119	791	791	1665.890012642225	species	Halorubrum sp. SS7
224756	14	0	140.85714285714286	class	Methanomicrobia
94695	14	0	140.85714285714286	order	Methanosarcinales
2206	14	0	140.85714285714286	family	Methanosarcinaceae
2207	14	4	140.85714285714286	genus	Methanosarcina
2209	10	10	155.6	species	Methanosarcina mazei
1783275	11	1	163.45454545454547	no_rank	TACK group
651137	10	1	118.2	phylum	Thaumarchaeota
1643678	9	0	121.11111111111111	class	Nitrososphaeria
1033996	9	0	121.11111111111111	order	Nitrososphaerales
1033997	9	0	121.11111111111111	family	Nitrososphaeraceae
1826864	9	0	121.11111111111111	genus	Candidatus Nitrosocosmicus
1798806	9	9	121.11111111111111	species	Candidatus Nitrosocosmicus franklandus
10239	25	8	200.6	superkingdom	Viruses
28883	7	7	477.7142857142857	order	Caudovirales
548681	10	0	89.4	order	Herpesvirales
10292	10	0	89.4	family	Herpesviridae
10357	10	0	89.4	subfamily	Betaherpesvirinae
548689	10	0	89.4	genus	Proboscivirus
548912	10	0	89.4	no_rank	unclassified Proboscivirus
548914	10	10	89.4	species	Elephant endotheliotropic herpesvirus 4
28384	478	0	497.77824267782427	no_rank	other sequences
81077	478	0	497.77824267782427	no_rank	artificial sequences
32630	478	478	497.77824267782427	species	synthetic construct
